<svg width="32" height="19" viewBox="0 0 32 19" fill="none" xmlns="http://www.w3.org/2000/svg">
<path fill-rule="evenodd" clip-rule="evenodd" d="M15.6253 18.278H17.5053C17.5053 18.278 18.0693 18.184 18.3513 17.902C18.6333 17.62 18.6333 17.056 18.6333 17.056C18.6333 17.056 18.6333 14.612 19.7613 14.236C20.8893 13.86 22.3933 16.68 23.8973 17.714C25.0253 18.56 25.8713 18.372 25.8713 18.372L30.0073 18.278C30.0073 18.278 32.1693 18.184 31.1353 16.398C31.0413 16.304 30.5713 15.176 28.0333 12.826C25.4013 10.382 25.7773 10.852 28.8793 6.62196C30.7593 4.08396 31.5113 2.57996 31.3233 1.82796C31.1353 1.16996 29.7253 1.35796 29.7253 1.35796H25.0253C25.0253 1.35796 24.6493 1.26396 24.4613 1.45196C24.1793 1.63996 24.0853 1.92196 24.0853 1.92196C24.0853 1.92196 23.3333 3.89596 22.3933 5.58796C20.3253 9.06596 19.4793 9.25396 19.1973 9.06596C18.4453 8.59596 18.6333 6.99796 18.6333 5.96396C18.6333 2.57996 19.1973 1.16996 17.5993 0.793956C17.1293 0.699956 16.7533 0.605957 15.4373 0.605957C13.7453 0.605957 12.3353 0.605957 11.5833 0.981957C11.0193 1.26396 10.6433 1.82796 10.9253 1.82796C11.2073 1.82796 11.9593 2.01596 12.3353 2.48596C12.7113 3.33196 12.7113 4.74196 12.7113 4.74196C12.7113 4.74196 12.9933 8.78396 12.0533 9.25396C11.3953 9.62996 10.5493 8.87796 8.66927 5.68196C7.72927 4.08396 6.97727 2.20396 6.97727 2.20396C6.97727 2.20396 6.88327 1.82796 6.60127 1.63996C6.31927 1.45196 5.84927 1.35796 5.84927 1.35796H1.43127C1.43127 1.35796 0.77327 1.35796 0.49127 1.63996C0.30327 1.92196 0.49127 2.39196 0.49127 2.39196C0.49127 2.39196 3.96927 10.476 7.91727 14.612C11.5833 18.56 15.6253 18.278 15.6253 18.278Z" fill="white"/>
<path fill-rule="evenodd" clip-rule="evenodd" d="M15.6253 18.278H17.5053C17.5053 18.278 18.0693 18.184 18.3513 17.902C18.6333 17.62 18.6333 17.056 18.6333 17.056C18.6333 17.056 18.6333 14.612 19.7613 14.236C20.8893 13.86 22.3933 16.68 23.8973 17.714C25.0253 18.56 25.8713 18.372 25.8713 18.372L30.0073 18.278C30.0073 18.278 32.1693 18.184 31.1353 16.398C31.0413 16.304 30.5713 15.176 28.0333 12.826C25.4013 10.382 25.7773 10.852 28.8793 6.62196C30.7593 4.08396 31.5113 2.57996 31.3233 1.82796C31.1353 1.16996 29.7253 1.35796 29.7253 1.35796H25.0253C25.0253 1.35796 24.6493 1.26396 24.4613 1.45196C24.1793 1.63996 24.0853 1.92196 24.0853 1.92196C24.0853 1.92196 23.3333 3.89596 22.3933 5.58796C20.3253 9.06596 19.4793 9.25396 19.1973 9.06596C18.4453 8.59596 18.6333 6.99796 18.6333 5.96396C18.6333 2.57996 19.1973 1.16996 17.5993 0.793956C17.1293 0.699956 16.7533 0.605957 15.4373 0.605957C13.7453 0.605957 12.3353 0.605957 11.5833 0.981957C11.0193 1.26396 10.6433 1.82796 10.9253 1.82796C11.2073 1.82796 11.9593 2.01596 12.3353 2.48596C12.7113 3.33196 12.7113 4.74196 12.7113 4.74196C12.7113 4.74196 12.9933 8.78396 12.0533 9.25396C11.3953 9.62996 10.5493 8.87796 8.66927 5.68196C7.72927 4.08396 6.97727 2.20396 6.97727 2.20396C6.97727 2.20396 6.88327 1.82796 6.60127 1.63996C6.31927 1.45196 5.84927 1.35796 5.84927 1.35796H1.43127C1.43127 1.35796 0.77327 1.35796 0.49127 1.63996C0.30327 1.92196 0.49127 2.39196 0.49127 2.39196C0.49127 2.39196 3.96927 10.476 7.91727 14.612C11.5833 18.56 15.6253 18.278 15.6253 18.278Z" fill="#009DE0"/>
</svg>
